+--------+-------------+-----------+--------+---------+-----------------+---------+---------------------+---------+
| Run ID | surfaceArea | thickness | Output | padCost | Expected Output | padCost | Result Verification | padCost |
+--------+-------------+-----------+--------+---------+-----------------+---------+---------------------+---------+
|   0    |     1.0     |    1.0    |        |   2.0   |                 |   2.0   |                     |   True  |
|   1    |     5.0     |    5.0    |        |   50.0  |                 |   50.0  |                     |   True  |
+--------+-------------+-----------+--------+---------+-----------------+---------+---------------------+---------+